{
  "aVotreService": {
    "apis": {
      "main": {
        "baseURL": "https://employees.pineapel.com",
        "clientSecret": "AIzaSyC11o-PsKImA4gKxWF6qzfCOcR4S_ZYVGE",
        "clientId": "f6cace0b-0328-4e1f-aac6-ea9013ea646a"
      }
    },
    "stripe": {
      "publishableKey": "pk_live_eU5jXb4KZXo88x6hnc42lOJM00oMZf9ai1",
      "apiVersion": "2020-03-02"
    },
    "app": {
      "scheme": "avotreservicedev",
      "environment": "production",
      "applePayMerchantID": "merchant.us.avotreservice.A-Votre-Service"
    }
  }
}
